…
# Checked the unique observations within 'response' columns
unique(brfss$response)
```

    ## [1] "Excellent" "Very good" "Good"      "Fair"      "Poor"

``` r
brfss %>%
  mutate(response_levels = forcats::fct_relevel(response, c("Excellent", "Very Good", "Good", 
                                                     "Fair", "Poor")))  
```

    ## Warning: Unknown levels in `f`: Very Good

    ## # A tibble: 10,625 x 24
    ##     year locationabbr locationdesc class topic question response
    ##    <int> <chr>        <chr>        <chr> <chr> <chr>    <chr>   
    ##  1  2010 AL           AL - Jeffer~ Heal~ Over~ How is ~ Excelle~
    ##  2  2010 AL           AL - Jeffer~ Heal~ Over~ How is ~ Very go~
    ##  3  2010 AL           AL - Jeffer~ Heal~ Over~ How is ~ Good    
    ##  4  2010 AL           AL - Jeffer~ Heal~ Over~ How is ~ Fair    
    ##  5  2010 AL           AL - Jeffer~ Heal~ Over~ How is ~ Poor    
    ##  6  2010 AL           AL - Mobile~ Heal~ Over~ How is ~ Excelle~
    ##  7  2010 AL           AL - Mobile~ Heal~ Over~ How is ~ Very go~
    ##  8  2010 AL           AL - Mobile~ Heal~ Over~ How is ~ Good    
    ##  9  2010 AL           AL - Mobile~ Heal~ Over~ How is ~ Fair    
    ## 10  2010 AL           AL - Mobile~ Heal~ Over~ How is ~ Poor    
    ## # ... with 10,615 more rows, and 17 more variables: sample_size <int>,
    ## #   data_value <dbl>, confidence_limit_low <dbl>,
    ## #   confidence_limit_high <dbl>, display_order <int>,
    ## #   data_value_unit <chr>, data_value_type <chr>,
    ## #   data_value_footnote_symbol <chr>, data_value_footnote <chr>,
    ## #   data_source <chr>, class_id <chr>, topic_id <chr>, location_id <chr>,
    ## #   question_id <chr>, respid <chr>, geo_location <chr>,
    ## #   response_levels <fct>
…
